%YAML 1.1
%TAG !u! tag:unity3d.com,2011:
--- !u!114 &11400000
MonoBehaviour:
  m_ObjectHideFlags: 0
  m_CorrespondingSourceObject: {fileID: 0}
  m_PrefabInstance: {fileID: 0}
  m_PrefabAsset: {fileID: 0}
  m_GameObject: {fileID: 0}
  m_Enabled: 1
  m_EditorHideFlags: 0
  m_Script: {fileID: 11500000, guid: 92accb427b6647198acb2b82dde5e429, type: 3}
  m_Name: PolygonSectionCreator
  m_EditorClassIdentifier: 
  facadeGenerator: {fileID: 11400000, guid: 5ff7b975df3f6c34296677dc29f1f68f, type: 2}
  minSectionCount: 3
  maxSectionCount: 6
  maxWidth: 30
  maxDepth: 30
