%YAML 1.1
%TAG !u! tag:unity3d.com,2011:
--- !u!114 &11400000
MonoBehaviour:
  m_ObjectHideFlags: 0
  m_CorrespondingSourceObject: {fileID: 0}
  m_PrefabInstance: {fileID: 0}
  m_PrefabAsset: {fileID: 0}
  m_GameObject: {fileID: 0}
  m_Enabled: 1
  m_EditorHideFlags: 0
  m_Script: {fileID: 11500000, guid: 3329f974df3e468cb0da40e0609ba82f, type: 3}
  m_Name: SkyscraperFacadeRandomizer
  m_EditorClassIdentifier: 
  groupNames: []
  facadeGenerator: {fileID: 11400000, guid: 716b30acc35b9904d8eefc5f2c554bf7, type: 2}
  materialContainerRandomizer:
    fieldValues:
    - propertyName: wallMaterial
      value: {fileID: 8305434477372563681}
    - propertyName: glassMaterial
      value: {fileID: 8863579029791050922}
    - propertyName: windowFrameMaterial
      value: {fileID: 2032711250033634409}
--- !u!114 &2032711250033634409
MonoBehaviour:
  m_ObjectHideFlags: 0
  m_CorrespondingSourceObject: {fileID: 0}
  m_PrefabInstance: {fileID: 0}
  m_PrefabAsset: {fileID: 0}
  m_GameObject: {fileID: 0}
  m_Enabled: 1
  m_EditorHideFlags: 0
  m_Script: {fileID: 11500000, guid: 9b730ab5a174460ab98c005f55d92f6f, type: 3}
  m_Name: z_value[2].ListMaterialSelector
  m_EditorClassIdentifier: 
  groupName: 
  materials:
  - {fileID: 2100000, guid: 4687ced7e6c41aa47ab81b213563548d, type: 2}
--- !u!114 &8305434477372563681
MonoBehaviour:
  m_ObjectHideFlags: 0
  m_CorrespondingSourceObject: {fileID: 0}
  m_PrefabInstance: {fileID: 0}
  m_PrefabAsset: {fileID: 0}
  m_GameObject: {fileID: 0}
  m_Enabled: 1
  m_EditorHideFlags: 0
  m_Script: {fileID: 11500000, guid: 9b730ab5a174460ab98c005f55d92f6f, type: 3}
  m_Name: z_value[0].ListMaterialSelector
  m_EditorClassIdentifier: 
  groupName: 
  materials:
  - {fileID: 2100000, guid: 3917ca7714327df4f9d7647f0c220928, type: 2}
--- !u!114 &8863579029791050922
MonoBehaviour:
  m_ObjectHideFlags: 0
  m_CorrespondingSourceObject: {fileID: 0}
  m_PrefabInstance: {fileID: 0}
  m_PrefabAsset: {fileID: 0}
  m_GameObject: {fileID: 0}
  m_Enabled: 1
  m_EditorHideFlags: 0
  m_Script: {fileID: 11500000, guid: 9b730ab5a174460ab98c005f55d92f6f, type: 3}
  m_Name: z_value[1].ListMaterialSelector
  m_EditorClassIdentifier: 
  groupName: 
  materials:
  - {fileID: 2100000, guid: 76351e8e4fc186b4b8cb4e44db48bd40, type: 2}
