%YAML 1.1
%TAG !u! tag:unity3d.com,2011:
--- !u!114 &11400000
MonoBehaviour:
  m_ObjectHideFlags: 0
  m_CorrespondingSourceObject: {fileID: 0}
  m_PrefabInstance: {fileID: 0}
  m_PrefabAsset: {fileID: 0}
  m_GameObject: {fileID: 0}
  m_Enabled: 1
  m_EditorHideFlags: 0
  m_Script: {fileID: 11500000, guid: 52b7695c87bf4b55b668a547799a811d, type: 3}
  m_Name: FirstFacadePlanner
  m_EditorClassIdentifier: 
  windowMesh: {fileID: -7443324448716839469, guid: ce5e06c6c8a1f5a4a805c36e67101cf9,
    type: 3}
  windowOrnamentRoundMesh: {fileID: 4808255802862096514, guid: 3b1d6b66167147d468364212a005624f,
    type: 3}
  windowOrnamentTriangleMesh: {fileID: 5900272588530296761, guid: 724d053e97ae2034390897eb983ae5ea,
    type: 3}
  windowModMesh: {fileID: 7095712515989622222, guid: cd1b5cafb4a802d418f4df9cf284ac91,
    type: 3}
  doorArchMesh: {fileID: 8833501391226051503, guid: 694be08acc0b8d24a82a92e6ef1c2da1,
    type: 3}
  ledgeAsset: {fileID: 4453802456722452941, guid: f8d93674b1d3f2d42afb902c11685d06,
    type: 3}
  materials:
    wallMaterial: {fileID: 2100000, guid: 45965e76e64bcdb4bb556339888eaa6d, type: 2}
    doorFrameMaterial: {fileID: 2100000, guid: 8a4ebf4e82e70554883d99d5f8f3509e, type: 2}
    doorMaterial: {fileID: 2100000, guid: 8f01121326d63e34f810677bd6b1ed9e, type: 2}
    windowOrnamentMaterial: {fileID: 2100000, guid: 958f01b423ffccd4184427cc02fc670a,
      type: 2}
    doorModMaterial: {fileID: 2100000, guid: 958f01b423ffccd4184427cc02fc670a, type: 2}
    ledgeMaterial: {fileID: 2100000, guid: 958f01b423ffccd4184427cc02fc670a, type: 2}
    windowLedgeMaterial: {fileID: 2100000, guid: 4687ced7e6c41aa47ab81b213563548d,
      type: 2}
    balconyMaterial: {fileID: 2100000, guid: 661db52145a1b73419331b6af30aecd4, type: 2}
    windowFrameMaterial: {fileID: 2100000, guid: 4687ced7e6c41aa47ab81b213563548d,
      type: 2}
    glassMaterial: {fileID: 2100000, guid: 76351e8e4fc186b4b8cb4e44db48bd40, type: 2}
