%YAML 1.1
%TAG !u! tag:unity3d.com,2011:
--- !u!114 &11400000
MonoBehaviour:
  m_ObjectHideFlags: 0
  m_CorrespondingSourceObject: {fileID: 0}
  m_PrefabInstance: {fileID: 0}
  m_PrefabAsset: {fileID: 0}
  m_GameObject: {fileID: 0}
  m_Enabled: 1
  m_EditorHideFlags: 0
  m_Script: {fileID: 11500000, guid: d94a97dea85d422c81ee143dd6939268, type: 3}
  m_Name: TestFacadePlanner
  m_EditorClassIdentifier: 
  windowMesh: {fileID: -7443324448716839469, guid: ce5e06c6c8a1f5a4a805c36e67101cf9,
    type: 3}
