%YAML 1.1
%TAG !u! tag:unity3d.com,2011:
--- !u!1 &8723911206725502309
GameObject:
  m_ObjectHideFlags: 0
  m_CorrespondingSourceObject: {fileID: 0}
  m_PrefabInstance: {fileID: 0}
  m_PrefabAsset: {fileID: 0}
  serializedVersion: 6
  m_Component:
  - component: {fileID: 1947031886575112208}
  m_Layer: 0
  m_Name: Window
  m_TagString: Untagged
  m_Icon: {fileID: 0}
  m_NavMeshLayer: 0
  m_StaticEditorFlags: 0
  m_IsActive: 1
--- !u!4 &1947031886575112208
Transform:
  m_ObjectHideFlags: 0
  m_CorrespondingSourceObject: {fileID: 0}
  m_PrefabInstance: {fileID: 0}
  m_PrefabAsset: {fileID: 0}
  m_GameObject: {fileID: 8723911206725502309}
  m_LocalRotation: {x: 0, y: 0, z: 0, w: 1}
  m_LocalPosition: {x: 0, y: 0, z: 0}
  m_LocalScale: {x: 1, y: 1, z: 1}
  m_Children:
  - {fileID: 3857837683792520977}
  m_Father: {fileID: 0}
  m_RootOrder: 0
  m_LocalEulerAnglesHint: {x: 0, y: 0, z: 0}
--- !u!1001 &8138987634036313099
PrefabInstance:
  m_ObjectHideFlags: 0
  serializedVersion: 2
  m_Modification:
    m_TransformParent: {fileID: 1947031886575112208}
    m_Modifications:
    - target: {fileID: -927199367670048503, guid: 9c5e26033192fd04c959552df75709c5,
        type: 3}
      propertyPath: m_Name
      value: window
      objectReference: {fileID: 0}
    - target: {fileID: -4216859302048453862, guid: 9c5e26033192fd04c959552df75709c5,
        type: 3}
      propertyPath: m_LocalPosition.x
      value: 0
      objectReference: {fileID: 0}
    - target: {fileID: -4216859302048453862, guid: 9c5e26033192fd04c959552df75709c5,
        type: 3}
      propertyPath: m_LocalPosition.y
      value: 0
      objectReference: {fileID: 0}
    - target: {fileID: -4216859302048453862, guid: 9c5e26033192fd04c959552df75709c5,
        type: 3}
      propertyPath: m_LocalPosition.z
      value: 0.164
      objectReference: {fileID: 0}
    - target: {fileID: -4216859302048453862, guid: 9c5e26033192fd04c959552df75709c5,
        type: 3}
      propertyPath: m_LocalRotation.x
      value: -0.5
      objectReference: {fileID: 0}
    - target: {fileID: -4216859302048453862, guid: 9c5e26033192fd04c959552df75709c5,
        type: 3}
      propertyPath: m_LocalRotation.y
      value: 0.5
      objectReference: {fileID: 0}
    - target: {fileID: -4216859302048453862, guid: 9c5e26033192fd04c959552df75709c5,
        type: 3}
      propertyPath: m_LocalRotation.z
      value: 0.5
      objectReference: {fileID: 0}
    - target: {fileID: -4216859302048453862, guid: 9c5e26033192fd04c959552df75709c5,
        type: 3}
      propertyPath: m_LocalRotation.w
      value: 0.5
      objectReference: {fileID: 0}
    - target: {fileID: -4216859302048453862, guid: 9c5e26033192fd04c959552df75709c5,
        type: 3}
      propertyPath: m_RootOrder
      value: 0
      objectReference: {fileID: 0}
    - target: {fileID: -4216859302048453862, guid: 9c5e26033192fd04c959552df75709c5,
        type: 3}
      propertyPath: m_LocalEulerAnglesHint.x
      value: -90
      objectReference: {fileID: 0}
    - target: {fileID: -4216859302048453862, guid: 9c5e26033192fd04c959552df75709c5,
        type: 3}
      propertyPath: m_LocalEulerAnglesHint.y
      value: 90
      objectReference: {fileID: 0}
    - target: {fileID: -4216859302048453862, guid: 9c5e26033192fd04c959552df75709c5,
        type: 3}
      propertyPath: m_LocalEulerAnglesHint.z
      value: 0
      objectReference: {fileID: 0}
    - target: {fileID: -1504981713932161579, guid: 9c5e26033192fd04c959552df75709c5,
        type: 3}
      propertyPath: m_Materials.Array.data[0]
      value: 
      objectReference: {fileID: 2100000, guid: 465ad3bc6a7628b4b87918425e063878, type: 2}
    m_RemovedComponents: []
  m_SourcePrefab: {fileID: 100100000, guid: 9c5e26033192fd04c959552df75709c5, type: 3}
--- !u!4 &3857837683792520977 stripped
Transform:
  m_CorrespondingSourceObject: {fileID: -4216859302048453862, guid: 9c5e26033192fd04c959552df75709c5,
    type: 3}
  m_PrefabInstance: {fileID: 8138987634036313099}
  m_PrefabAsset: {fileID: 0}
